---
http_interactions:
- request:
    method: get
    uri: https://api.datacite.org/users?page%5Bnumber%5D=1&page%5Bsize%5D=25&query=miller
    body:
      encoding: US-ASCII
      string: ''
    headers:
      User-Agent:
      - Mozilla/5.0 (compatible; Maremma/4.4; mailto:info@datacite.org)
      Accept:
      - text/html,application/json,application/xml;q=0.9, text/plain;q=0.8,image/png,*/*;q=0.5
  response:
    status:
      code: 200
      message: OK
    headers:
      Date:
      - Fri, 11 Oct 2019 11:23:49 GMT
      Content-Type:
      - application/json; charset=utf-8
      Connection:
      - keep-alive
      Status:
      - 200 OK
      X-Anonymous-Consumer:
      - 'true'
      Cache-Control:
      - max-age=0, private, must-revalidate
      Vary:
      - Accept-Encoding, Origin
      Referrer-Policy:
      - strict-origin-when-cross-origin
      X-Permitted-Cross-Domain-Policies:
      - none
      X-Xss-Protection:
      - 1; mode=block
      X-Request-Id:
      - 8f5f5db7-fee0-480f-84ba-3d4a8498cbd3
      X-Download-Options:
      - noopen
      Etag:
      - W/"bca02083b79a966b2bb5c6e6e8aed4bd"
      X-Frame-Options:
      - SAMEORIGIN
      X-Runtime:
      - '0.023022'
      X-Content-Type-Options:
      - nosniff
      X-Powered-By:
      - Phusion Passenger 6.0.4
      Server:
      - nginx/1.17.3 + Phusion Passenger 6.0.4
    body:
      encoding: ASCII-8BIT
      string: '{"data":[{"id":"0000-0003-0175-443X","type":"users","attributes":{"givenNames":"Hajira","familyName":"Dambha-Miller","name":"Hajira
        Dambha-Miller","orcid":"https://orcid.org/0000-0003-0175-443X","github":null,"roleId":"user","isActive":false,"created":"2019-03-25T00:30:25.000Z","updated":"2019-03-25T00:30:36.000Z"},"relationships":{}},{"id":"0000-0002-1339-6249","type":"users","attributes":{"givenNames":"Hannah","familyName":"Gatz-Miller","name":"Hannah
        Gatz-Miller","orcid":"https://orcid.org/0000-0002-1339-6249","github":null,"roleId":"user","isActive":false,"created":"2017-07-27T18:06:10.000Z","updated":"2017-07-27T18:06:10.000Z"},"relationships":{}},{"id":"0000-0002-0052-8353","type":"users","attributes":{"givenNames":"Anne","familyName":"Hoover-Miller","name":"Anne
        Hoover-Miller","orcid":"https://orcid.org/0000-0002-0052-8353","github":null,"roleId":"user","isActive":false,"created":"2017-11-10T01:57:41.000Z","updated":"2017-11-10T01:59:55.000Z"},"relationships":{}},{"id":"0000-0001-8738-3769","type":"users","attributes":{"givenNames":"Jerry","familyName":"Miller","name":"Jerry
        Miller","orcid":"https://orcid.org/0000-0001-8738-3769","github":null,"roleId":"user","isActive":false,"created":"2016-05-18T18:22:12.000Z","updated":"2016-05-18T18:22:12.000Z"},"relationships":{}},{"id":"0000-0002-9441-0101","type":"users","attributes":{"givenNames":"Sara","familyName":"Miller","name":"Sara
        Miller","orcid":"https://orcid.org/0000-0002-9441-0101","github":null,"roleId":"user","isActive":false,"created":"2016-03-26T03:19:18.000Z","updated":"2016-03-26T03:19:18.000Z"},"relationships":{}},{"id":"0000-0003-0561-9972","type":"users","attributes":{"givenNames":"Jodie","familyName":"Miller","name":"Jodie
        Miller","orcid":"https://orcid.org/0000-0003-0561-9972","github":null,"roleId":"user","isActive":false,"created":"2016-09-15T23:04:17.000Z","updated":"2016-09-20T02:53:45.000Z"},"relationships":{}},{"id":"0000-0003-1594-1885","type":"users","attributes":{"givenNames":"Larry","familyName":"Miller","name":"Larry
        Miller","orcid":"https://orcid.org/0000-0003-1594-1885","github":null,"roleId":"user","isActive":false,"created":"2017-07-02T21:13:41.000Z","updated":"2017-07-02T21:13:41.000Z"},"relationships":{}},{"id":"0000-0002-5347-9460","type":"users","attributes":{"givenNames":"Suzanne","familyName":"Miller","name":"Suzanne
        Miller","orcid":"https://orcid.org/0000-0002-5347-9460","github":null,"roleId":"user","isActive":false,"created":"2017-05-25T14:01:38.000Z","updated":"2017-05-25T14:01:38.000Z"},"relationships":{}},{"id":"0000-0002-6642-918X","type":"users","attributes":{"givenNames":"Cara","familyName":"Miller","name":"Cara
        Miller","orcid":"https://orcid.org/0000-0002-6642-918X","github":null,"roleId":"user","isActive":false,"created":"2017-11-28T11:39:14.000Z","updated":"2017-11-28T11:39:14.000Z"},"relationships":{}},{"id":"0000-0001-6762-123X","type":"users","attributes":{"givenNames":"Taylor","familyName":"Miller","name":"Taylor
        Miller","orcid":"https://orcid.org/0000-0001-6762-123X","github":null,"roleId":"user","isActive":false,"created":"2018-03-20T16:47:41.000Z","updated":"2018-03-20T16:47:41.000Z"},"relationships":{}},{"id":"0000-0002-5405-9927","type":"users","attributes":{"givenNames":"Shawn","familyName":"Miller","name":"Shawn
        Miller","orcid":"https://orcid.org/0000-0002-5405-9927","github":null,"roleId":"user","isActive":false,"created":"2018-04-03T01:35:08.000Z","updated":"2018-05-31T15:54:30.000Z"},"relationships":{}},{"id":"0000-0002-4037-642X","type":"users","attributes":{"givenNames":"Nicholas","familyName":"Miller","name":"Nicholas
        B. Miller","orcid":"https://orcid.org/0000-0002-4037-642X","github":null,"roleId":"user","isActive":false,"created":"2018-08-19T09:30:50.000Z","updated":"2018-08-19T09:30:50.000Z"},"relationships":{}},{"id":"0000-0002-7580-9889","type":"users","attributes":{"givenNames":"Mogamat","familyName":"Miller","name":"Mogamat
        Miller","orcid":"https://orcid.org/0000-0002-7580-9889","github":null,"roleId":"user","isActive":false,"created":"2019-01-23T18:53:03.000Z","updated":"2019-01-23T18:53:03.000Z"},"relationships":{}},{"id":"0000-0001-5002-5095","type":"users","attributes":{"givenNames":"Shane","familyName":"Miller","name":"Shane
        M. Miller, MD","orcid":"https://orcid.org/0000-0001-5002-5095","github":null,"roleId":"user","isActive":false,"created":"2019-07-01T20:40:14.000Z","updated":"2019-07-01T20:40:14.000Z"},"relationships":{}},{"id":"0000-0001-6628-530X","type":"users","attributes":{"givenNames":"John","familyName":"Miller","name":"John
        Miller","orcid":"https://orcid.org/0000-0001-6628-530X","github":null,"roleId":"user","isActive":false,"created":"2019-07-15T18:06:49.000Z","updated":"2019-07-15T18:06:49.000Z"},"relationships":{}},{"id":"0000-0002-1164-9249","type":"users","attributes":{"givenNames":"John","familyName":"Miller","name":"John
        Miller","orcid":"https://orcid.org/0000-0002-1164-9249","github":null,"roleId":"user","isActive":false,"created":"2019-03-29T04:44:50.000Z","updated":"2019-03-29T04:44:50.000Z"},"relationships":{}},{"id":"0000-0001-7305-928X","type":"users","attributes":{"givenNames":"Hayden","familyName":"Miller","name":"Hayden
        Miller","orcid":"https://orcid.org/0000-0001-7305-928X","github":null,"roleId":"user","isActive":false,"created":"2019-10-08T16:31:13.000Z","updated":"2019-10-08T16:31:13.000Z"},"relationships":{}},{"id":"0000-0001-9739-8462","type":"users","attributes":{"givenNames":"Austin","familyName":"Miller","name":"Austin
        Miller","orcid":"https://orcid.org/0000-0001-9739-8462","github":null,"roleId":"user","isActive":false,"created":"2019-10-08T18:46:23.000Z","updated":"2019-10-08T18:46:23.000Z"},"relationships":{}},{"id":"0000-0002-1707-9048","type":"users","attributes":{"givenNames":"Katrina","familyName":"Miller","name":"Katrina
        Miller","orcid":"https://orcid.org/0000-0002-1707-9048","github":null,"roleId":"user","isActive":false,"created":"2015-11-29T23:54:51.000Z","updated":"2015-11-29T23:54:51.000Z"},"relationships":{}},{"id":"0000-0002-2537-1823","type":"users","attributes":{"givenNames":"Matthew","familyName":"Miller","name":"Matthew
        Miller","orcid":"https://orcid.org/0000-0002-2537-1823","github":null,"roleId":"user","isActive":false,"created":"2016-01-11T15:44:30.000Z","updated":"2016-01-11T15:44:30.000Z"},"relationships":{}},{"id":"0000-0002-8827-3825","type":"users","attributes":{"givenNames":"Julia
        Colleen","familyName":"Miller","name":"Julia Colleen Miller","orcid":"https://orcid.org/0000-0002-8827-3825","github":null,"roleId":"user","isActive":false,"created":"2016-09-20T23:47:35.000Z","updated":"2016-09-20T23:47:35.000Z"},"relationships":{}},{"id":"0000-0002-4138-1378","type":"users","attributes":{"givenNames":"Scott","familyName":"Miller","name":"Scott
        Miller","orcid":"https://orcid.org/0000-0002-4138-1378","github":null,"roleId":"user","isActive":false,"created":"2017-01-07T23:11:46.000Z","updated":"2017-01-07T23:11:47.000Z"},"relationships":{}},{"id":"0000-0002-2778-9596","type":"users","attributes":{"givenNames":"Paul","familyName":"Miller","name":"Paul
        Miller","orcid":"https://orcid.org/0000-0002-2778-9596","github":null,"roleId":"user","isActive":false,"created":"2017-01-12T18:21:15.000Z","updated":"2017-01-12T18:21:15.000Z"},"relationships":{}},{"id":"0000-0003-2745-2392","type":"users","attributes":{"givenNames":"Owen","familyName":"Miller","name":"Owen
        Miller","orcid":"https://orcid.org/0000-0003-2745-2392","github":null,"roleId":"user","isActive":false,"created":"2017-07-08T02:16:31.000Z","updated":"2017-07-08T02:16:31.000Z"},"relationships":{}},{"id":"0000-0001-8527-2942","type":"users","attributes":{"givenNames":"Carol","familyName":"Miller","name":"Carol
        Miller","orcid":"https://orcid.org/0000-0001-8527-2942","github":null,"roleId":"user","isActive":false,"created":"2017-06-21T20:33:13.000Z","updated":"2017-06-21T20:34:18.000Z"},"relationships":{}}],"meta":{"total":85,"totalPages":4,"page":1},"links":{"self":"https://api.datacite.org/users?page%5Bnumber%5D=1\u0026page%5Bsize%5D=25\u0026query=miller","next":"https://api.datacite.org/users?page%5Bnumber%5D=2\u0026page%5Bsize%5D=25\u0026query=miller"}}'
    http_version: 
  recorded_at: Fri, 11 Oct 2019 11:23:50 GMT
recorded_with: VCR 3.0.3
