---
http_interactions:
- request:
    method: get
    uri: https://api.datacite.org/events?obj-id=https://doi.org/10.7272/q6z60kzd&page%5Bsize%5D=100
    body:
      encoding: US-ASCII
      string: ''
    headers:
      User-Agent:
      - Mozilla/5.0 (compatible; Maremma/4.2.1; +https://github.com/datacite/maremma)
      Accept:
      - application/vnd.api+json; version=2
  response:
    status:
      code: 200
      message: OK
    headers:
      Date:
      - Sun, 12 May 2019 11:13:20 GMT
      Content-Type:
      - application/json; charset=utf-8
      Connection:
      - keep-alive
      Status:
      - 200 OK
      X-Anonymous-Consumer:
      - 'true'
      Cache-Control:
      - max-age=0, private, must-revalidate
      Vary:
      - Accept-Encoding, Origin
      Etag:
      - W/"1ecf55a0a98f9a24832b0448137cb503"
      X-Runtime:
      - '0.065414'
      X-Request-Id:
      - '0382566b-041a-445e-9174-fd1d5c963385'
      X-Powered-By:
      - Phusion Passenger 6.0.2
      Server:
      - nginx/1.15.8 + Phusion Passenger 6.0.2
    body:
      encoding: ASCII-8BIT
      string: '{"data":[{"id":"758199db-95c9-4216-ae7a-70b9d00425d4","type":"events","attributes":{"subjId":"https://api.datacite.org/reports/08761bb6-f8d9-4d01-8012-fd21042fd71d","objId":"https://doi.org/10.7272/q6z60kzd","sourceId":"datacite-usage","relationTypeId":"total-dataset-investigations-regular","total":58,"messageAction":"create","sourceToken":"43ba99ae-5cf0-11e8-9c2d-fa7ae01bbebc","license":"https://creativecommons.org/publicdomain/zero/1.0/","occurredAt":"2018-05-31T00:00:00.000Z","timestamp":"2018-09-05T20:03:51.000Z"},"relationships":{"subj":{"data":{"id":"https://api.datacite.org/reports/08761bb6-f8d9-4d01-8012-fd21042fd71d","type":"objects"}},"obj":{"data":{"id":"https://doi.org/10.7272/q6z60kzd","type":"objects"}}}},{"id":"de42c435-144d-4320-811c-bb66202dfaf3","type":"events","attributes":{"subjId":"https://api.datacite.org/reports/08761bb6-f8d9-4d01-8012-fd21042fd71d","objId":"https://doi.org/10.7272/q6z60kzd","sourceId":"datacite-usage","relationTypeId":"unique-dataset-investigations-regular","total":6,"messageAction":"create","sourceToken":"43ba99ae-5cf0-11e8-9c2d-fa7ae01bbebc","license":"https://creativecommons.org/publicdomain/zero/1.0/","occurredAt":"2018-05-31T00:00:00.000Z","timestamp":"2018-09-05T20:03:58.141Z"},"relationships":{"subj":{"data":{"id":"https://api.datacite.org/reports/08761bb6-f8d9-4d01-8012-fd21042fd71d","type":"objects"}},"obj":{"data":{"id":"https://doi.org/10.7272/q6z60kzd","type":"objects"}}}},{"id":"0449c7e8-1ee2-48ec-b1fd-c7839b88b500","type":"events","attributes":{"subjId":"https://api.datacite.org/reports/2018-4-Dash","objId":"https://doi.org/10.7272/q6z60kzd","sourceId":"datacite-usage","relationTypeId":"total-dataset-requests-regular","total":23157,"messageAction":"create","sourceToken":"43ba99ae-5cf0-11e8-9c2d-fa7ae01bbebc","license":"https://creativecommons.org/publicdomain/zero/1.0/","occurredAt":"2018-04-30T00:00:00.000Z","timestamp":"2018-09-05T22:00:29.445Z"},"relationships":{"subj":{"data":{"id":"https://api.datacite.org/reports/2018-4-Dash","type":"objects"}},"obj":{"data":{"id":"https://doi.org/10.7272/q6z60kzd","type":"objects"}}}},{"id":"7ac4532e-52af-465d-a628-88a2e7165d78","type":"events","attributes":{"subjId":"https://api.datacite.org/reports/2018-4-Dash","objId":"https://doi.org/10.7272/q6z60kzd","sourceId":"datacite-usage","relationTypeId":"unique-dataset-requests-regular","total":179,"messageAction":"create","sourceToken":"43ba99ae-5cf0-11e8-9c2d-fa7ae01bbebc","license":"https://creativecommons.org/publicdomain/zero/1.0/","occurredAt":"2018-04-30T00:00:00.000Z","timestamp":"2018-09-05T22:00:35.566Z"},"relationships":{"subj":{"data":{"id":"https://api.datacite.org/reports/2018-4-Dash","type":"objects"}},"obj":{"data":{"id":"https://doi.org/10.7272/q6z60kzd","type":"objects"}}}},{"id":"5844e1d2-edc9-43dc-9d52-d070926ecc6b","type":"events","attributes":{"subjId":"https://api.datacite.org/reports/2018-4-Dash","objId":"https://doi.org/10.7272/q6z60kzd","sourceId":"datacite-usage","relationTypeId":"total-dataset-investigations-regular","total":7,"messageAction":"create","sourceToken":"43ba99ae-5cf0-11e8-9c2d-fa7ae01bbebc","license":"https://creativecommons.org/publicdomain/zero/1.0/","occurredAt":"2018-04-30T00:00:00.000Z","timestamp":"2018-09-05T22:00:41.215Z"},"relationships":{"subj":{"data":{"id":"https://api.datacite.org/reports/2018-4-Dash","type":"objects"}},"obj":{"data":{"id":"https://doi.org/10.7272/q6z60kzd","type":"objects"}}}},{"id":"242f47a5-5382-41f8-8506-1b934b9d8578","type":"events","attributes":{"subjId":"https://api.datacite.org/reports/2018-4-Dash","objId":"https://doi.org/10.7272/q6z60kzd","sourceId":"datacite-usage","relationTypeId":"unique-dataset-investigations-regular","total":7,"messageAction":"create","sourceToken":"43ba99ae-5cf0-11e8-9c2d-fa7ae01bbebc","license":"https://creativecommons.org/publicdomain/zero/1.0/","occurredAt":"2018-04-30T00:00:00.000Z","timestamp":"2018-09-05T22:00:46.682Z"},"relationships":{"subj":{"data":{"id":"https://api.datacite.org/reports/2018-4-Dash","type":"objects"}},"obj":{"data":{"id":"https://doi.org/10.7272/q6z60kzd","type":"objects"}}}},{"id":"344debf2-cde6-47a7-a11b-241e22514773","type":"events","attributes":{"subjId":"https://api.datacite.org/reports/d4cccd37-9044-4c59-85d4-f2063ce361cd","objId":"https://doi.org/10.7272/q6z60kzd","sourceId":"datacite-usage","relationTypeId":"total-dataset-investigations-regular","total":4,"messageAction":"create","sourceToken":"43ba99ae-5cf0-11e8-9c2d-fa7ae01bbebc","license":"https://creativecommons.org/publicdomain/zero/1.0/","occurredAt":"2018-06-30T00:00:00.000Z","timestamp":"2018-09-07T14:48:13.355Z"},"relationships":{"subj":{"data":{"id":"https://api.datacite.org/reports/d4cccd37-9044-4c59-85d4-f2063ce361cd","type":"objects"}},"obj":{"data":{"id":"https://doi.org/10.7272/q6z60kzd","type":"objects"}}}},{"id":"daba4b90-ed78-4479-93fd-b979d1008b75","type":"events","attributes":{"subjId":"https://api.datacite.org/reports/d4cccd37-9044-4c59-85d4-f2063ce361cd","objId":"https://doi.org/10.7272/q6z60kzd","sourceId":"datacite-usage","relationTypeId":"unique-dataset-investigations-regular","total":3,"messageAction":"create","sourceToken":"43ba99ae-5cf0-11e8-9c2d-fa7ae01bbebc","license":"https://creativecommons.org/publicdomain/zero/1.0/","occurredAt":"2018-06-30T00:00:00.000Z","timestamp":"2018-09-07T14:48:13.423Z"},"relationships":{"subj":{"data":{"id":"https://api.datacite.org/reports/d4cccd37-9044-4c59-85d4-f2063ce361cd","type":"objects"}},"obj":{"data":{"id":"https://doi.org/10.7272/q6z60kzd","type":"objects"}}}},{"id":"82d5898b-019f-4fd0-b194-bfff651fc985","type":"events","attributes":{"subjId":"https://api.datacite.org/reports/21fd2e8e-5481-4bbd-b2ef-742d8b270a66","objId":"https://doi.org/10.7272/q6z60kzd","sourceId":"datacite-usage","relationTypeId":"total-dataset-requests-regular","total":23157,"messageAction":"create","sourceToken":"43ba99ae-5cf0-11e8-9c2d-fa7ae01bbebc","license":"https://creativecommons.org/publicdomain/zero/1.0/","occurredAt":"2018-04-30T00:00:00.000Z","timestamp":"2018-09-07T14:50:02.748Z"},"relationships":{"subj":{"data":{"id":"https://api.datacite.org/reports/21fd2e8e-5481-4bbd-b2ef-742d8b270a66","type":"objects"}},"obj":{"data":{"id":"https://doi.org/10.7272/q6z60kzd","type":"objects"}}}},{"id":"099d8a1e-4553-4653-b2be-9553e6772832","type":"events","attributes":{"subjId":"https://api.datacite.org/reports/21fd2e8e-5481-4bbd-b2ef-742d8b270a66","objId":"https://doi.org/10.7272/q6z60kzd","sourceId":"datacite-usage","relationTypeId":"unique-dataset-requests-regular","total":179,"messageAction":"create","sourceToken":"43ba99ae-5cf0-11e8-9c2d-fa7ae01bbebc","license":"https://creativecommons.org/publicdomain/zero/1.0/","occurredAt":"2018-04-30T00:00:00.000Z","timestamp":"2018-09-07T14:50:02.812Z"},"relationships":{"subj":{"data":{"id":"https://api.datacite.org/reports/21fd2e8e-5481-4bbd-b2ef-742d8b270a66","type":"objects"}},"obj":{"data":{"id":"https://doi.org/10.7272/q6z60kzd","type":"objects"}}}},{"id":"03f5743e-089e-4163-a406-f6529e81e422","type":"events","attributes":{"subjId":"https://api.datacite.org/reports/21fd2e8e-5481-4bbd-b2ef-742d8b270a66","objId":"https://doi.org/10.7272/q6z60kzd","sourceId":"datacite-usage","relationTypeId":"total-dataset-investigations-regular","total":23164,"messageAction":"create","sourceToken":"43ba99ae-5cf0-11e8-9c2d-fa7ae01bbebc","license":"https://creativecommons.org/publicdomain/zero/1.0/","occurredAt":"2018-04-30T00:00:00.000Z","timestamp":"2018-09-07T14:50:02.889Z"},"relationships":{"subj":{"data":{"id":"https://api.datacite.org/reports/21fd2e8e-5481-4bbd-b2ef-742d8b270a66","type":"objects"}},"obj":{"data":{"id":"https://doi.org/10.7272/q6z60kzd","type":"objects"}}}},{"id":"b50631aa-6f06-4a80-b137-49a52166750f","type":"events","attributes":{"subjId":"https://api.datacite.org/reports/21fd2e8e-5481-4bbd-b2ef-742d8b270a66","objId":"https://doi.org/10.7272/q6z60kzd","sourceId":"datacite-usage","relationTypeId":"unique-dataset-investigations-regular","total":185,"messageAction":"create","sourceToken":"43ba99ae-5cf0-11e8-9c2d-fa7ae01bbebc","license":"https://creativecommons.org/publicdomain/zero/1.0/","occurredAt":"2018-04-30T00:00:00.000Z","timestamp":"2018-09-07T14:50:02.947Z"},"relationships":{"subj":{"data":{"id":"https://api.datacite.org/reports/21fd2e8e-5481-4bbd-b2ef-742d8b270a66","type":"objects"}},"obj":{"data":{"id":"https://doi.org/10.7272/q6z60kzd","type":"objects"}}}},{"id":"ddf862d2-e196-4354-bc72-4ce5d0a3c154","type":"events","attributes":{"subjId":"https://api.datacite.org/reports/0cb326d1-e3e7-4cc1-9d86-7c5f3d5ca310","objId":"https://doi.org/10.7272/q6z60kzd","sourceId":"datacite-usage","relationTypeId":"total-dataset-investigations-regular","total":16,"messageAction":"create","sourceToken":"43ba99ae-5cf0-11e8-9c2d-fa7ae01bbebc","license":"https://creativecommons.org/publicdomain/zero/1.0/","occurredAt":"2018-08-31T00:00:00.000Z","timestamp":"2018-09-07T14:52:22.718Z"},"relationships":{"subj":{"data":{"id":"https://api.datacite.org/reports/0cb326d1-e3e7-4cc1-9d86-7c5f3d5ca310","type":"objects"}},"obj":{"data":{"id":"https://doi.org/10.7272/q6z60kzd","type":"objects"}}}},{"id":"38a4944d-37fe-4f07-a5d4-7dae84726830","type":"events","attributes":{"subjId":"https://api.datacite.org/reports/0cb326d1-e3e7-4cc1-9d86-7c5f3d5ca310","objId":"https://doi.org/10.7272/q6z60kzd","sourceId":"datacite-usage","relationTypeId":"unique-dataset-investigations-regular","total":16,"messageAction":"create","sourceToken":"43ba99ae-5cf0-11e8-9c2d-fa7ae01bbebc","license":"https://creativecommons.org/publicdomain/zero/1.0/","occurredAt":"2018-08-31T00:00:00.000Z","timestamp":"2018-09-07T14:52:22.786Z"},"relationships":{"subj":{"data":{"id":"https://api.datacite.org/reports/0cb326d1-e3e7-4cc1-9d86-7c5f3d5ca310","type":"objects"}},"obj":{"data":{"id":"https://doi.org/10.7272/q6z60kzd","type":"objects"}}}},{"id":"de91d05f-99f8-413f-96c4-68a093d0ebcf","type":"events","attributes":{"subjId":"https://api.datacite.org/reports/0c732186-e057-47d9-a5ee-a8121a26c4f9","objId":"https://doi.org/10.7272/q6z60kzd","sourceId":"datacite-usage","relationTypeId":"unique-dataset-investigations-regular","total":10,"messageAction":"create","sourceToken":"43ba99ae-5cf0-11e8-9c2d-fa7ae01bbebc","license":"https://creativecommons.org/publicdomain/zero/1.0/","occurredAt":"2019-02-01T00:00:00.000Z","timestamp":"2019-02-27T16:20:55.490Z"},"relationships":{"subj":{"data":{"id":"https://api.datacite.org/reports/0c732186-e057-47d9-a5ee-a8121a26c4f9","type":"objects"}},"obj":{"data":{"id":"https://doi.org/10.7272/q6z60kzd","type":"objects"}}}},{"id":"68b5403b-2151-4b67-96ab-d23332a08e1a","type":"events","attributes":{"subjId":"https://api.datacite.org/reports/0c732186-e057-47d9-a5ee-a8121a26c4f9","objId":"https://doi.org/10.7272/q6z60kzd","sourceId":"datacite-usage","relationTypeId":"total-dataset-investigations-regular","total":11,"messageAction":"create","sourceToken":"43ba99ae-5cf0-11e8-9c2d-fa7ae01bbebc","license":"https://creativecommons.org/publicdomain/zero/1.0/","occurredAt":"2019-02-01T00:00:00.000Z","timestamp":"2019-02-27T16:20:55.527Z"},"relationships":{"subj":{"data":{"id":"https://api.datacite.org/reports/0c732186-e057-47d9-a5ee-a8121a26c4f9","type":"objects"}},"obj":{"data":{"id":"https://doi.org/10.7272/q6z60kzd","type":"objects"}}}},{"id":"cfcad9be-5651-4ebb-b01d-5be10ab054d7","type":"events","attributes":{"subjId":"https://api.datacite.org/reports/d47d3a5a-7a7a-495a-8db8-d6fb5bba4e5e","objId":"https://doi.org/10.7272/q6z60kzd","sourceId":"datacite-usage","relationTypeId":"unique-dataset-investigations-regular","total":5,"messageAction":"create","sourceToken":"43ba99ae-5cf0-11e8-9c2d-fa7ae01bbebc","license":"https://creativecommons.org/publicdomain/zero/1.0/","occurredAt":"2019-03-01T00:00:00.000Z","timestamp":"2019-03-11T15:05:48.624Z"},"relationships":{"subj":{"data":{"id":"https://api.datacite.org/reports/d47d3a5a-7a7a-495a-8db8-d6fb5bba4e5e","type":"objects"}},"obj":{"data":{"id":"https://doi.org/10.7272/q6z60kzd","type":"objects"}}}},{"id":"1ed26cf4-7d2a-44a7-92c5-263a5c40c9bd","type":"events","attributes":{"subjId":"https://api.datacite.org/reports/d47d3a5a-7a7a-495a-8db8-d6fb5bba4e5e","objId":"https://doi.org/10.7272/q6z60kzd","sourceId":"datacite-usage","relationTypeId":"total-dataset-investigations-regular","total":5,"messageAction":"create","sourceToken":"43ba99ae-5cf0-11e8-9c2d-fa7ae01bbebc","license":"https://creativecommons.org/publicdomain/zero/1.0/","occurredAt":"2019-03-01T00:00:00.000Z","timestamp":"2019-03-11T15:05:52.502Z"},"relationships":{"subj":{"data":{"id":"https://api.datacite.org/reports/d47d3a5a-7a7a-495a-8db8-d6fb5bba4e5e","type":"objects"}},"obj":{"data":{"id":"https://doi.org/10.7272/q6z60kzd","type":"objects"}}}},{"id":"2d6d4e2c-2d61-4362-8794-2c80d33b5263","type":"events","attributes":{"subjId":"https://api.datacite.org/reports/98258e11-c29d-471d-aaf2-7d650f28029a","objId":"https://doi.org/10.7272/q6z60kzd","sourceId":"datacite-usage","relationTypeId":"unique-dataset-investigations-regular","total":2,"messageAction":"create","sourceToken":"43ba99ae-5cf0-11e8-9c2d-fa7ae01bbebc","license":"https://creativecommons.org/publicdomain/zero/1.0/","occurredAt":"2019-04-01T00:00:00.000Z","timestamp":"2019-04-05T14:33:07.912Z"},"relationships":{"subj":{"data":{"id":"https://api.datacite.org/reports/98258e11-c29d-471d-aaf2-7d650f28029a","type":"objects"}},"obj":{"data":{"id":"https://doi.org/10.7272/q6z60kzd","type":"objects"}}}},{"id":"f8f75e97-cfec-4b19-bbb9-2d2e8151d84c","type":"events","attributes":{"subjId":"https://api.datacite.org/reports/98258e11-c29d-471d-aaf2-7d650f28029a","objId":"https://doi.org/10.7272/q6z60kzd","sourceId":"datacite-usage","relationTypeId":"total-dataset-investigations-regular","total":2,"messageAction":"create","sourceToken":"43ba99ae-5cf0-11e8-9c2d-fa7ae01bbebc","license":"https://creativecommons.org/publicdomain/zero/1.0/","occurredAt":"2019-04-01T00:00:00.000Z","timestamp":"2019-04-05T14:33:09.388Z"},"relationships":{"subj":{"data":{"id":"https://api.datacite.org/reports/98258e11-c29d-471d-aaf2-7d650f28029a","type":"objects"}},"obj":{"data":{"id":"https://doi.org/10.7272/q6z60kzd","type":"objects"}}}},{"id":"b7e90ced-2381-46bc-9f42-25a296a60192","type":"events","attributes":{"subjId":"https://api.datacite.org/reports/073f27b5-d38b-4301-ab73-3274ba3eb672","objId":"https://doi.org/10.7272/q6z60kzd","sourceId":"datacite-usage","relationTypeId":"total-dataset-investigations-regular","total":2,"messageAction":"create","sourceToken":"43ba99ae-5cf0-11e8-9c2d-fa7ae01bbebc","license":"https://creativecommons.org/publicdomain/zero/1.0/","occurredAt":"2019-05-01T00:00:00.000Z","timestamp":"2019-05-10T14:44:25.527Z"},"relationships":{"subj":{"data":{"id":"https://api.datacite.org/reports/073f27b5-d38b-4301-ab73-3274ba3eb672","type":"objects"}},"obj":{"data":{"id":"https://doi.org/10.7272/q6z60kzd","type":"objects"}}}},{"id":"9487211a-c9c8-4f33-9dcb-97d8ca983ffd","type":"events","attributes":{"subjId":"https://api.datacite.org/reports/073f27b5-d38b-4301-ab73-3274ba3eb672","objId":"https://doi.org/10.7272/q6z60kzd","sourceId":"datacite-usage","relationTypeId":"unique-dataset-investigations-regular","total":2,"messageAction":"create","sourceToken":"43ba99ae-5cf0-11e8-9c2d-fa7ae01bbebc","license":"https://creativecommons.org/publicdomain/zero/1.0/","occurredAt":"2019-05-01T00:00:00.000Z","timestamp":"2019-05-10T14:44:27.929Z"},"relationships":{"subj":{"data":{"id":"https://api.datacite.org/reports/073f27b5-d38b-4301-ab73-3274ba3eb672","type":"objects"}},"obj":{"data":{"id":"https://doi.org/10.7272/q6z60kzd","type":"objects"}}}}],"meta":{"total":22,"totalPages":1,"page":1,"sources":[{"id":"datacite-usage","title":"DataCite
        Usage Stats","count":22}],"prefixes":[{"id":"10.7272","title":"10.7272","count":22}],"citationTypes":[],"relationTypes":[{"id":"total-dataset-investigations-regular","title":"total-dataset-investigations-regular","count":23269.0,"yearMonths":[{"id":"2018-04","title":"April
        2018","sum":23171.0},{"id":"2018-05","title":"May 2018","sum":58.0},{"id":"2018-06","title":"June
        2018","sum":4.0},{"id":"2018-08","title":"August 2018","sum":16.0},{"id":"2019-02","title":"February
        2019","sum":11.0},{"id":"2019-03","title":"March 2019","sum":5.0},{"id":"2019-04","title":"April
        2019","sum":2.0},{"id":"2019-05","title":"May 2019","sum":2.0}]},{"id":"unique-dataset-investigations-regular","title":"unique-dataset-investigations-regular","count":236.0,"yearMonths":[{"id":"2018-04","title":"April
        2018","sum":192.0},{"id":"2018-05","title":"May 2018","sum":6.0},{"id":"2018-06","title":"June
        2018","sum":3.0},{"id":"2018-08","title":"August 2018","sum":16.0},{"id":"2019-02","title":"February
        2019","sum":10.0},{"id":"2019-03","title":"March 2019","sum":5.0},{"id":"2019-04","title":"April
        2019","sum":2.0},{"id":"2019-05","title":"May 2019","sum":2.0}]},{"id":"total-dataset-requests-regular","title":"total-dataset-requests-regular","count":46314.0,"yearMonths":[{"id":"2018-04","title":"April
        2018","sum":46314.0}]},{"id":"unique-dataset-requests-regular","title":"unique-dataset-requests-regular","count":358.0,"yearMonths":[{"id":"2018-04","title":"April
        2018","sum":358.0}]}]},"links":{"self":"https://api.datacite.org/events?obj-id=https%3A%2F%2Fdoi.org%2F10.7272%2Fq6z60kzd&page%5Bsize%5D=100","next":"https://api.datacite.org/events?obj-id=https%3A%2F%2Fdoi.org%2F10.7272%2Fq6z60kzd&page%5Bnumber%5D=2&page%5Bsize%5D=100"}}'
    http_version: 
  recorded_at: Sun, 12 May 2019 11:13:20 GMT
recorded_with: VCR 3.0.3
